{
   "AWSTemplateFormatVersion" : "2010-09-09",
   "Parameters" : {
		"3PrivateSubnetACidr": {
			"Description": "Range IP subnet privata",
			"Type": "String",
			"Default": "192.168.x.100/27"
		},
		"2PublicSubnetACidr": {
			"Description": "Range IP subnet pubblica",
			"Type": "String",
			"Default": "192.168.x.50/27"
		},
		"1VPCCidrBlock": {
			"Description": "Range IP VPC",
			"Type": "String",
			"Default": "192.168.x.0/24"
		}
   },
    "Resources": {
    	"Ec2Bastion": {
			"Type": "AWS::EC2::Instance",
			"Properties": {
				"AvailabilityZone":"eu-west-1a",
				"DisableApiTermination": false,
				"ImageId": "ami-0de49921409e8c5f6",
				"NetworkInterfaces": [
					{
						"AssociatePublicIpAddress": true,
						"DeviceIndex": "0",
						"GroupSet": [
							{
								"Ref": "ControlSG"
							}
						],
						"SubnetId": {
							"Ref": "PublicSubnetA"
						}
					}
				],
				"InstanceType": "t3a.medium",
				"KeyName": "academy-keypair",
				"Tags": [
					{
						"Key": "Name",
						"Value": { "Fn::Join" : [ "-", [ { "Ref" : "AWS::StackName" }, "instance" ]]}
					}
				]
			}
		},
		"EIPbastion" : {
			"Type" : "AWS::EC2::EIP",
			"Properties" : [
				"Domain" : "vpc",
				"InstanceId" : { "Ref" : "Ec2Bastion" }
				}
		},
		"ControlSG" : {
		"Type" : "AWS::EC2::SecurityGroup",
		"Properties" : {
			"GroupDescription" : { "Fn::Join" : [ " ", [ { "Ref" : "AWS::StackName" }, "Security Group for the Control Instances"]]},
			"VpcId" : {"Ref" : "VPC"},
			"SecurityGroupIngress" : [{
            "IpProtocol" : "tcp",
            "FromPort" : "22",
            "ToPort" : "22",
            "CidrIp" : "1.1.1.1/0"
			},
			{
            "IpProtocol" : "tcp",
            "FromPort" : "8080",
            "ToPort" : "8080",
            "CidrIp" : "0.0.0.0/0"
			},
			{
            "IpProtocol" : "tcp",
            "FromPort" : "8001",
            "ToPort" : "8001",
            "CidrIp" : "0.0.0.0/0"
			}
			],
			"Tags": [ 
				{ "Key" : "Name", "Value": { "Fn::Join" : [ "-", [ { "Ref" : "AWS::StackName" }, "instance-sg" ]]}}
				]
			}
		},
		"VPC": {
			"Type": "AWS::EC2::VPC",
			"Properties": {
			"EnableDnsSupport": "true",
			"EnableDnsHostnames": "true",
			"CidrBlock": {
				"Ref": "1VPCCidrBlock"
			},
			"Tags": [ 
				{ "Key" : "Name", "Value": { "Fn::Join" : [ "-", [ { "Ref" : "AWS::StackName" }, "vpc" ]]}}
				]
			}
		},
		"PublicSubnetA": {
		"Type": "AWS::EC2::Subnet",
		"Properties" : {
			"AvailabilityZone" : "eu-west-1a",
			"CidrBlock" : {
				"Ref": "2PublicSubnetACidr"
				},
			"VpcId": { "Ref": "VPC" }, 
			"Tags": [ 
				{ "Key" : "Name", "Value": { "Fn::Join" : [ "-", [ { "Ref" : "AWS::StackName" }, "public-subnet" ]]}}
				]		
			}
		},
		"PrivateSubnetA": {
		"Type": "AWS::EC2::Subnet",
		"Properties" : {
			"AvailabilityZone" : "eu-west-1a",
			"CidrBlock" : {
				"Ref": "3PrivateSubnetACidr"
				},
			"VpcId": { "Ref": "VPC" },
			"Tags": [ 
				{ "Key" : "Name", "Value": { "Fn::Join" : [ "-", [ { "Ref" : "AWS::StackName" }, "private-subnet" ]]}}
				]
			}
		},
		"InternetGateway": {
		"Type": "AWS::EC2::InternetGateway",
		"Properties": {
			"Tags": [ 
				{ "Key" : "Name", "Value": { "Fn::Join" : [ "-", [ { "Ref" : "AWS::StackName" }, "InternetGateway" ]]}}
				]
			}
		},
		"GatewayToInternet": {
		"Type": "AWS::EC2::VPCGatewayAttachment",
		"Properties": {
			"VpcId": {
				"Ref": "VPC"
				},
				"InternetGatewayId": {
				"Ref": "InternetGateway"
				}
			}
		},
		"PublicRouteTable" : {
		"Type" : "AWS::EC2::RouteTable",
		"DependsOn" : "GatewayToInternet",
		"Properties" : {
			"VpcId": { "Ref": "VPC" },
			"Tags": [ 
				{ "Key" : "Name", "Value": { "Fn::Join" : [ "-", [ { "Ref" : "AWS::StackName" }, "Public-route-table" ]]}}
			]
			}
		},
		"PublicRoute" : {
        "Type" : "AWS::EC2::Route",
        "Properties" : {
            "RouteTableId" : { "Ref" : "PublicRouteTable" },
			"DestinationCidrBlock" : "2.2.2.2/0",
            "GatewayId" : { "Ref" : "InternetGateway" }
			}
		},
		"RouteTableAssociationPublicA": {
		"Type": "AWS::EC2::SubnetRouteTableAssociation",
		"DependsOn" : "GatewayToInternet",
		"Properties": {
			"SubnetId": { "Ref": "PublicSubnetA" },
			"RouteTableId": { "Ref": "PublicRouteTable"}
			}
		},
		"PrivateRouteTableA" : {
		"Type" : "AWS::EC2::RouteTable",
		"DependsOn" : "GatewayToInternet",
		"Properties" : {
			"VpcId": { "Ref": "VPC" },
			"Tags": [ 
				{ "Key" : "Name", "Value": { "Fn::Join" : [ "-", [ { "Ref" : "AWS::StackName" }, "Private-route-table" ]]}}
				]
			}
		},
		"NatA" : {
		"DependsOn" : "GatewayToInternet",
		"Type" : "AWS::EC2::NatGateway",
		"Properties" : {
			"AllocationId" : { "Fn::GetAtt" : ["EIPNatA", "AllocationId"]},
			"SubnetId" : { "Ref" : "publiccsubnet"}
			}
		},
		"EIPNatA" : {
		"Type" : "AWS::EC2::EIP",
		"Properties" : {
			"Domain" : "vpc"
			}
		},
		"PrivateRouteA" : {
		"Type" : "AWS::EC2::Route",
		"Properties" : {
			"RouteTableId" : { "Ref" : "PrivateRouteTableA" },
			"DestinationCidrBlock" : "0.0.0.0/0",
			"NatGatewayId" : { "Ref" : "NatA" }
			}
		},
		"RouteTableAssociationPrivateA": {
		"Type": "AWS::EC2::SubnetRouteTableAssociation",
		"Properties": {
			"SubnetId": { "Ref": "PrivateSubnetA" },
			"RouteTableId": { "Ref": "PrivateRouteTableA"}
			}
		}
	}
}